Introduction to Stray::Pibble • stray
…
priors <- to_clr(priors)  
summary(priors, pars="Lambda")  
#> $Lambda
#> # A tibble: 196 x 9
#>    Parameter coord covariate  p2.5    p25      p50        mean   p75 p97.5
#>    <chr>     <int>     <int> <dbl>  <dbl>    <dbl>       <dbl> <dbl> <dbl>
#>  1 Lambda        1         1 -1.74 -0.528  0.0421   0.0509     0.596  2.09
#>  2 Lambda        1         2 -2.08 -0.567  0.0143   0.00199    0.575  1.96
#>  3 Lambda        1         3 -2.06 -0.620 -0.0102  -0.0373     0.532  1.98
#>  4 Lambda        1         4 -1.90 -0.554 -0.00469 -0.00205    0.549  2.01
#>  5 Lambda        2         1 -1.86 -0.564 -0.0249   0.00991    0.535  2.13
#>  6 Lambda        2         2 -1.89 -0.572 -0.00610 -0.00000782 0.580  2.02
#>  7 Lambda        2         3 -2.14 -0.570 -0.0388  -0.0247     0.518  1.93
#>  8 Lambda        2         4 -2.00 -0.536  0.0240   0.0165     0.589  1.95
#>  9 Lambda        3         1 -2.02 -0.584  0.0224   0.0138     0.620  2.04
#> 10 Lambda        3         2 -2.05 -0.542 -0.00311 -0.00502    0.581  1.86
#> # … with 186 more rows
…
