Joint Modeling (e.g., Multiomics) with Stray::Orthus • stray
…
# Select those covariances where the model has high certainty (95%) that
# the true covariance is not zero. 
xcor.summary %>% 
  filter(sign(p2.5)==sign(p97.5)) %>% 
  filter(abs(mean) > 2)
#> # A tibble: 228 x 8
#> # Groups:   taxa [17]
#>    taxa  metabolite   p2.5   p25   p50  mean   p75  p97.5
#>    <chr> <chr>       <dbl> <dbl> <dbl> <dbl> <dbl>  <dbl>
#>  1 722   206.0445922 -6.71 -4.05 -3.04 -3.33 -2.37 -1.44 
#>  2 7816  206.0445922 -5.43 -3.27 -2.48 -2.68 -1.85 -1.07 
#>  3 722   290.9298419 -5.50 -3.15 -2.43 -2.62 -1.87 -1.11 
#>  4 18182 380.1846197 -5.08 -3.07 -2.34 -2.55 -1.79 -1.09 
#>  5 722   181.4504354 -5.07 -3.02 -2.33 -2.52 -1.83 -1.11 
#>  6 722   177.0565368 -5.29 -3.01 -2.31 -2.49 -1.79 -0.990
#>  7 19517 380.1846197 -4.88 -3.05 -2.29 -2.48 -1.71 -0.952
#>  8 722   176.0343919 -5.00 -2.97 -2.29 -2.48 -1.74 -1.10 
#>  9 2943  380.1846197 -4.95 -2.98 -2.30 -2.47 -1.78 -1.04 
#> 10 722   180.072273  -5.03 -2.96 -2.28 -2.46 -1.72 -0.983
#> # … with 218 more rows
…
